[
{
  "displayName":"One Convergence Python template",
  "description":"HelloWorld microservice written in python",
  "language":"python",
  "projectType":"docker",
  "location":"https://gitlab.com/rjGYbxSS/OCPythonTemplate",
  "links": {"self":"/devfiles/pythonTemplate/devfile.yaml" }
}
]
